<?xml version="1.0" encoding="utf-8"?>
<!-- Generator: Adobe Illustrator 26.5.0, SVG Export Plug-In . SVG Version: 6.00 Build 0)  -->
<svg version="1.1" id="Layer_1_xA0_Image_00000005229967999091085720000014926996546808668041_"
	 xmlns="http://www.w3.org/2000/svg" xmlns:xlink="http://www.w3.org/1999/xlink" x="0px" y="0px" viewBox="0 0 1130.4 699.6"
	 style="enable-background:new 0 0 1130.4 699.6;" xml:space="preserve">
<image style="overflow:visible;" width="4164" height="2459" id="Layer_1_xA0_Image" xlink:href="7281900DFE8FC02C.png"  transform="matrix(0.24 0 0 0.24 88.08 50.88)">
</image>
</svg>
