<?xml version="1.0" encoding="utf-8"?>
<!-- Generator: Adobe Illustrator 16.0.0, SVG Export Plug-In . SVG Version: 6.00 Build 0)  -->
<!DOCTYPE svg PUBLIC "-//W3C//DTD SVG 1.1//EN" "http://www.w3.org/Graphics/SVG/1.1/DTD/svg11.dtd">
<svg version="1.1" id="Layer_1" xmlns="http://www.w3.org/2000/svg" xmlns:xlink="http://www.w3.org/1999/xlink" x="0px" y="0px"
	 width="100px" height="100px" viewBox="0 0 100 100" enable-background="new 0 0 100 100" xml:space="preserve">
<path fill="#171D37" d="M89.76,49.96v0.84C68.359,50.8,51,68.16,51,89.561h-0.84C50.16,68.16,32.8,50.8,11.4,50.8v-0.84
	c21.44,0,38.76-17.36,38.76-38.76H51C51,32.64,68.359,49.96,89.76,49.96z"/>
</svg>
